<?xml version="1.0" encoding="utf-8"?>
<!-- Generator: Adobe Illustrator 22.1.0, SVG Export Plug-In . SVG Version: 6.00 Build 0)  -->
<svg version="1.1" id="Capa_1" xmlns="http://www.w3.org/2000/svg" xmlns:xlink="http://www.w3.org/1999/xlink" x="0px" y="0px"
	 viewBox="0 0 44.8 45.9" style="enable-background:new 0 0 44.8 45.9;" xml:space="preserve">
<style type="text/css">
	.st0{fill:#FFFFFF;}
	.st1{fill:#222220;}
	.st2{fill:#D10000;}
</style>
<g>
	<polygon class="st0" points="0.9,8.6 9.8,6.8 18.4,3.3 22.5,0.6 29.7,4.9 37.2,7.4 43.9,8.6 36.8,35.8 22.5,45.2 7.8,35.9 	"/>
	<g>
		<path class="st1" d="M22.7,11c0.3,0,0.6,0,0.9,0.1c1.5,0.2,3,0.6,4.4,1.4c0.7,0.4,1.4,0.9,2.1,1.4c0.2,0.1,0.2,0.3,0.1,0.4
			c-0.4,0.4-0.7,0.8-1.1,1.2c-0.1,0.1-0.2,0.1-0.3,0c-1.2-1-2.6-1.8-4.2-2.1c-4.1-0.9-8.5,0.9-10.7,4.7c-0.7,1.2-1.1,2.4-1.3,3.8
			c-0.3,2.9,0.5,5.4,2.4,7.6c1.5,1.7,3.3,2.8,5.6,3.2c3,0.5,5.7-0.1,8.1-2.1c1.9-1.5,3-3.5,3.4-5.8c0.2-1.1,0.2-2.2,0-3.4
			c0-0.2,0-0.4,0.3-0.5c0.5-0.1,1-0.2,1.5-0.3c0.2,0,0.3,0.1,0.3,0.3c0.2,1,0.2,2,0.1,3c-0.4,4.1-2.4,7.3-5.9,9.4
			c-1.4,0.9-2.9,1.4-4.6,1.5c-3.3,0.4-6.3-0.4-8.9-2.5c-2.2-1.8-3.7-4.1-4.3-6.9c-0.8-3.8,0-7.2,2.5-10.2c1.8-2.2,4.1-3.6,7-4.2
			c0.5-0.1,1-0.1,1.5-0.2c0.1,0,0.2,0,0.3,0C22.1,11,22.4,11,22.7,11z"/>
		<path class="st1" d="M37.4,11.1c-0.2,0.8-0.5,1.5-0.7,2.1c-0.1,0.4-0.2,0.7-0.3,1.1c-0.1,0.2,0,0.3,0.2,0.4
			c1.1,0.4,2.2,0.7,3.3,1.1c0.1,0,0.2,0.1,0.3,0.1c-0.5,0.3-0.9,0.5-1.3,0.7c-1.2,0.7-2.4,1.3-3.7,2c-0.1,0-0.2,0.1-0.3,0.1
			c-1.2-0.3-2.4-0.1-3.6,0.2c-0.9,0.2-1.6,0.8-2.4,1.2c-1.3,0.8-2.6,1.6-4,2.4c-0.1,0.1-0.2,0.2-0.3,0.4c-0.2,1.2-0.8,2-1.9,2.2
			c-1.3,0.3-2.7-0.6-2.9-1.9c-0.2-1,0.2-1.9,1-2.4c0.8-0.6,1.7-0.6,2.6-0.1c0.2,0.1,0.3,0.1,0.4,0c1.8-1.1,3.7-2.1,5.5-3.2
			c1.3-0.8,2.2-1.9,2.8-3.3c0.1-0.2,0.2-0.4,0.4-0.5c1.5-0.8,2.9-1.7,4.4-2.5C37.2,11.2,37.3,11.1,37.4,11.1z"/>
		<path class="st1" d="M26.3,17.1c-0.7,0.4-1.3,0.7-2,1.1c-0.1,0-0.2,0-0.3,0c-2.9-1.1-6.1,0.6-6.9,3.6c-0.7,2.9,1.3,5.9,4.2,6.3
			c2.8,0.4,5.4-1.5,5.9-4.3c0-0.3,0.1-0.4,0.4-0.5c0.6-0.3,1.1-0.5,1.7-0.8c0.3,2.1-0.8,5.6-4.2,7.1c-3.2,1.4-7.1,0.3-9-2.8
			c-1.9-3-1.3-7,1.4-9.3C20.2,15.1,24,15.3,26.3,17.1z"/>
	</g>
	<path class="st2" d="M22.4,0c0,0-6.8,6.4-22.4,8.1l7.3,28.1l15,9.7l15.1-9.7l7.3-28.1C29.2,6.4,22.4,0,22.4,0z M36.6,35.4
		l-14.2,9.1L8.2,35.4L1.3,9C16,7.3,22.4,1.3,22.4,1.3s6.4,6,21.1,7.7L36.6,35.4z"/>
</g>
</svg>
