<?xml version="1.0" encoding="utf-8"?>
<!-- Generator: Adobe Illustrator 22.0.1, SVG Export Plug-In . SVG Version: 6.00 Build 0)  -->
<svg version="1.1" id="Capa_1" xmlns="http://www.w3.org/2000/svg" xmlns:xlink="http://www.w3.org/1999/xlink" x="0px" y="0px"
	 viewBox="0 0 22 16.3" style="enable-background:new 0 0 22 16.3;" xml:space="preserve">
<g>
	<g>
		<g>
			<path d="M21.7,12.8c0,0-0.1-0.9-0.2-1.2c-0.1-0.3-0.1-0.3,0.1-0.5c0.2-0.2-0.5-0.1-0.6,0c-0.1,0-0.1,0.1-0.1,0.1
				c-1.3,0.1-4.2-1.6-6.6-1.8C12,9,9.7,9.3,8.9,9.5C8.1,9.7,5.3,11.2,5,11.2c-0.3,0.1-0.2-0.1-0.2-0.1c-1.6,0.1-4.3,1.4-4.3,1.4
				c-0.1,0.1-0.2,0.5-0.2,0.5l0.1,0.2C-0.1,13.7,0,14.6,0,14.6l0.2-0.1C0.3,14.6,0.3,15,0.3,15c-0.4,0.2-0.1,0.3-0.1,0.3
				s0.2-0.1,0.8,0.1c0.3,0.1,0.8,0.1,1.5,0.1c-0.1-0.2-0.1-0.5-0.1-0.7c0-1.1,0.9-1.9,1.9-1.9c1.1,0,1.9,0.9,1.9,1.9
				c0,0.2,0,0.4-0.1,0.7l9.8,0c-0.1-0.2-0.1-0.4-0.1-0.6c0-1.1,0.9-1.9,1.9-1.9c1.1,0,1.9,0.9,1.9,1.9c0,0.2,0,0.4-0.1,0.6
				c1-0.2,2.1-0.4,2.1-0.4l0.2-0.3c0,0,0.2-1.2,0-1.4C21.8,13.1,21.7,12.8,21.7,12.8z"/>
			<path d="M4.3,16.3c0.6,0,1.2-0.4,1.4-0.9c0.1-0.2,0.1-0.4,0.1-0.7c0-0.9-0.7-1.6-1.6-1.6c-0.9,0-1.6,0.7-1.6,1.6
				c0,0.3,0.1,0.5,0.2,0.7C3.2,16,3.7,16.3,4.3,16.3z"/>
			<path d="M17.8,16.3c0.6,0,1.2-0.4,1.4-0.9c0.1-0.2,0.2-0.4,0.2-0.7c0-0.9-0.7-1.6-1.6-1.6c-0.9,0-1.6,0.7-1.6,1.6
				c0,0.2,0.1,0.4,0.1,0.6C16.6,15.9,17.1,16.3,17.8,16.3z"/>
		</g>
	</g>
	<g>
		<path d="M4.7,8c0.6,0,1.2,0,1.8,0c0.1,0,0.2,0,0.2-0.1c0.5-0.5,1-0.9,1.4-1.4c0.8-0.7,1.5-1.4,2.3-2.1c0,0,0,0,0.1-0.1
			c-0.1-0.1-0.1-0.2-0.2-0.3c-0.1-0.3,0-0.7,0.3-0.8c0,0,0.1-0.1,0.1-0.1c0-0.1,0-0.2,0-0.4c-0.1,0-0.1,0-0.1-0.1
			c-0.1-0.5-0.1-0.9-0.2-1.4c0,0,0,0,0,0c0.1,0,0.2,0,0.3,0c0-0.4,0-0.7,0-1.1c0.1,0,0.1,0,0.2,0c0,0.4,0,0.7,0,1.1c0,0,0,0,0,0
			c0.2,0,0.2,0,0.2-0.2c0-0.3,0-0.6,0-0.9c0.1,0,0.1,0,0.2,0c0,0.4,0,0.7,0,1.1c0.1,0,0.2,0,0.3,0c0,0.2-0.1,0.4-0.1,0.6
			c-0.1,0.3-0.1,0.5-0.2,0.8c0,0.1-0.1,0.1-0.1,0.1c0,0-0.1,0-0.1,0c0,0.1,0,0.3,0,0.4c0,0,0,0.1,0,0.1c0,0.2,0,0.2-0.2,0.3
			c-0.2,0.1-0.3,0.3-0.1,0.4c0,0,0.1,0,0.1,0c0.1-0.1,0.2-0.1,0.3,0c0-0.1,0-0.1,0-0.2c0-0.1,0.1-0.2,0.2-0.2c0.1,0,0.2,0.1,0.2,0.2
			c0,0.1-0.1,0.3-0.1,0.5c0.1,0.1,0.2,0.2,0.3,0.3c0.6,0.6,1.3,1.1,1.9,1.7c0.6,0.5,1.2,1.1,1.8,1.6c0,0,0.1,0.1,0.2,0.1
			c0.7,0,1.4,0,2.1,0c0,1.5,0,3.1,0,4.6c0,0-0.1,0-0.1,0c-4,0-8,0-12,0c-0.3,0-0.6,0-0.9,0C4.7,11,4.7,9.5,4.7,8z M15.1,7.9
			c-0.4-0.3-0.7-0.6-1-0.9c-0.5-0.4-1-0.9-1.4-1.3c-0.5-0.4-0.9-0.8-1.4-1.3c0,0-0.1,0-0.1,0c-0.1,0-0.3,0.1-0.4,0
			c-0.1,0-0.1,0-0.1,0c-0.4,0.4-0.8,0.7-1.2,1.1C8.6,6.3,7.8,7.1,7,7.9c0,0,0,0-0.1,0.1C9.7,7.9,12.4,7.9,15.1,7.9z M16.2,11.9
			c0-0.1,0-0.1,0-0.1c0-1,0-1.9,0-2.9c0-0.1,0-0.2,0-0.3c-0.1-0.1-0.2,0-0.3,0c-0.1,0-0.1,0-0.1,0.1c0,1,0,2,0,3.1c0,0,0,0,0,0.1
			c0,0,0,0.1,0,0.1C15.9,11.9,16,11.9,16.2,11.9z M9.5,11.9c0.1,0,0.2,0,0.3,0c0.1,0,0.1,0,0.1-0.1c0-1,0-2,0-3.1c0,0,0,0,0-0.1
			c0-0.1,0-0.1-0.1-0.1c-0.1,0-0.2,0-0.2,0c-0.1,0-0.1,0-0.1,0.1c0,0.9,0,1.9,0,2.8C9.5,11.7,9.5,11.8,9.5,11.9z M11.3,11.9
			c0.1,0,0.2,0,0.3,0c0.1,0,0.1,0,0.1-0.1c0-0.6,0-1.3,0-1.9c0-0.4,0-0.8,0-1.2c0-0.1,0-0.1-0.1-0.1c-0.1,0-0.1,0-0.2,0
			c-0.1,0-0.1,0-0.1,0.1c0,1,0,2,0,3.1C11.3,11.8,11.3,11.9,11.3,11.9z M13.5,11.9c0,0,0-0.1,0-0.1c0-0.8,0-1.6,0-2.3
			c0-0.2,0-0.5,0-0.7c0-0.1,0-0.1-0.1-0.1c-0.1,0-0.1,0-0.2,0c-0.1,0-0.1,0-0.1,0.1c0,1,0,2,0,3.1c0,0,0,0.1,0,0.1
			C13.2,11.9,13.3,11.9,13.5,11.9z M7.3,11.9c0-1.1,0-2.2,0-3.3c-0.1,0-0.2,0-0.3,0c-0.1,0-0.1,0-0.1,0.1c0,1,0,2,0,3.1
			c0,0,0,0.1,0,0.1C7,11.9,7.2,11.9,7.3,11.9z M10.8,11.9c0-1.1,0-2.2,0-3.3c-0.1,0-0.2,0-0.3,0c-0.1,0-0.1,0-0.1,0.1
			c0,1,0,2.1,0,3.1c0,0,0,0.1,0,0.1C10.6,11.9,10.7,11.9,10.8,11.9z M12.2,8.6c0,1.1,0,2.2,0,3.3c0.1,0,0.3,0,0.4,0c0,0,0-0.1,0-0.1
			c0-1,0-2,0-3.1c0,0,0,0,0-0.1c0,0,0-0.1-0.1-0.1C12.4,8.6,12.3,8.6,12.2,8.6z M14.4,11.9c0-1.1,0-2.2,0-3.3c-0.1,0-0.2,0-0.3,0
			c-0.1,0-0.1,0-0.1,0.1c0,1,0,2,0,3.1c0,0,0,0.1,0,0.1C14.1,11.9,14.2,11.9,14.4,11.9z M8.2,8.6c-0.1,0-0.2,0-0.3,0
			c-0.1,0-0.1,0-0.1,0.1c0,1,0,2,0,3.1c0,0,0,0.1,0,0.1c0.2,0,0.3,0,0.4,0C8.2,10.8,8.2,9.7,8.2,8.6z M17,11.9c0-1.1,0-2.2,0-3.3
			c-0.1,0-0.2,0-0.3,0c-0.1,0-0.1,0-0.1,0.1c0,1,0,2,0,3.1c0,0,0,0.1,0,0.1C16.7,11.9,16.9,11.9,17,11.9z M6.4,11.9c0,0,0-0.1,0-0.1
			c0-1,0-2.1,0-3.1c0,0,0,0,0-0.1c0,0,0-0.1-0.1-0.1c-0.1,0-0.2,0-0.4,0c0,1.1,0,2.2,0,3.3C6.1,11.9,6.3,11.9,6.4,11.9z M8.6,8.6
			c0,1.1,0,2.2,0,3.3c0.1,0,0.3,0,0.4,0c0,0,0-0.1,0-0.1c0-1,0-2,0-3c0,0,0-0.1,0-0.1c0,0,0-0.1-0.1-0.1C8.9,8.6,8.8,8.6,8.6,8.6z
			 M15.3,11.9C15.3,11.9,15.3,11.8,15.3,11.9c0-1.1,0-2.2,0-3.2c0,0,0-0.1,0-0.1c0,0,0,0,0,0c-0.1,0-0.3,0-0.4,0c0,1.1,0,2.2,0,3.3
			C15,11.9,15.1,11.9,15.3,11.9z M5.3,8.6c0,1.1,0,2.2,0,3.3c0.2,0,0.2,0,0.2-0.2c0-1,0-2,0-3C5.5,8.6,5.5,8.6,5.3,8.6
			C5.4,8.6,5.3,8.6,5.3,8.6z"/>
	</g>
</g>
</svg>
