<?xml version="1.0" encoding="utf-8"?>
<!-- Generator: Adobe Illustrator 22.0.1, SVG Export Plug-In . SVG Version: 6.00 Build 0)  -->
<svg version="1.1" id="Capa_1" xmlns="http://www.w3.org/2000/svg" xmlns:xlink="http://www.w3.org/1999/xlink" x="0px" y="0px"
	 viewBox="0 0 300.8 41.2" style="enable-background:new 0 0 300.8 41.2;" xml:space="preserve">
<style type="text/css">
	.st0{fill:#D10000;}
</style>
<g>
	<g>
		<path class="st0" d="M108.7,5.8l-8.5,6.8l0,0l0,0c-3.6,2.4-7.2,4.7-10.8,7l-0.1,0l-0.1,0L75,23.6l0,0l0,0c-4.5,0.7-9,1.4-13.5,2.1
			l0.4-1l2,2.6l0.1,0.2l0,0.2l0,7.2l0,0.4l-0.3,0.2l-9,5.6l-0.4,0.2L54,41l-9-5.6l-0.3-0.2l0-0.4l0-7.2l0-0.2l0.1-0.2l2-2.6l0.4,1
			c-4.5-0.7-9-1.3-13.5-2.1l0,0l0,0l-14.3-3.9l-0.1,0l-0.1,0c-3.6-2.3-7.2-4.7-10.8-7l0,0l0,0L0,5.8l8.7,6.4l0,0
			c3.7,2.2,7.3,4.5,11,6.7l-0.1-0.1L34,22.4l-0.1,0c4.5,0.6,9,1.3,13.5,1.9l1.1,0.2l-0.7,0.9l-2,2.6l0.1-0.4l0,7.2l-0.3-0.6l9.1,5.6
			l-0.8,0l9.1-5.6l-0.3,0.6l0-7.2l0.1,0.4l-2-2.6l-0.7-0.9l1.1-0.2c4.5-0.6,9-1.3,13.5-1.9l-0.1,0l14.4-3.6L89,18.9
			c3.7-2.3,7.3-4.5,11-6.7l0,0L108.7,5.8z"/>
		<path d="M105.6,5.1l-43.7,4l-7.2,9.5L60.6,9l-3.9-7.1L61,0L49.3,0l-1,1L45,1l1.1,5.8l1-3.3l2.5,0l0.9,2.3L48.1,9l5.9,9.5l-7.2-9.5
			l-43.7-4l7.2,5l43.6,8.6L12,12.1l5.8,3.3l36,3.3l-33.5-1.4l11.5,2.8l22-1.3l-19.4,2.3l7.4,1.1l12-3.3l-10,3.7l2.9,0.2l7.2-3.8
			l-6.2,4l2.8,0l3.5-3.9l-6.4,8.1l0.2,4.3l6.3-12.3l-6.3,14.2l5.9,3.8c0,0,0.6-18,0.6-18l0,0l0,0l0.6,18l5.9-3.8l-6.3-14.2l6.3,12.3
			l0.2-4.3l-6.4-8.1l3.5,3.9l2.8,0l-6.2-4l7.2,3.8l2.9-0.2l-10-3.7l12,3.3l7.4-1.1l-19.4-2.3l22,1.3l11.5-2.8l-33.5,1.4l36-3.3
			l5.8-3.3l-41.8,6.6l43.6-8.6L105.6,5.1z M50,1.6l-0.7-0.9l2.2,0L50,1.6z"/>
		<path class="st0" d="M60.8,22l-13,0l6.5-10.5L60.8,22z M49.4,21.1l9.8,0l-4.9-7.9L49.4,21.1z"/>
	</g>
	<g>
		<g>
			<path d="M153.8,26.5c0,0.9-0.1,1.8-0.4,2.5c-0.2,0.7-0.5,1.4-0.9,2c-0.4,0.6-0.8,1.1-1.4,1.4c-0.5,0.4-1.1,0.7-1.6,1
				c-0.6,0.3-1.1,0.4-1.7,0.6c-0.6,0.1-1.1,0.2-1.6,0.2l-18.2,0l0-4.7l18.2,0c0.9,0,1.6-0.3,2.1-0.8c0.5-0.5,0.8-1.2,0.8-2.1
				c0-0.4-0.1-0.8-0.2-1.2c-0.1-0.4-0.3-0.7-0.6-0.9c-0.2-0.3-0.5-0.5-0.9-0.6c-0.4-0.1-0.8-0.2-1.2-0.2l-10.8,0
				c-0.8,0-1.6-0.1-2.5-0.4c-0.9-0.3-1.7-0.7-2.5-1.3c-0.8-0.6-1.4-1.4-1.9-2.4c-0.5-1-0.8-2.2-0.8-3.6c0-1.4,0.3-2.6,0.8-3.6
				c0.5-1,1.1-1.8,1.9-2.4c0.8-0.6,1.6-1.1,2.5-1.3c0.9-0.3,1.7-0.4,2.5-0.4l16,0l0,4.7l-16,0c-0.9,0-1.6,0.3-2.1,0.8
				c-0.5,0.5-0.8,1.3-0.8,2.2c0,0.9,0.3,1.6,0.8,2.1c0.5,0.5,1.2,0.8,2.1,0.8l10.8,0l0,0c0.5,0,1,0.1,1.6,0.2
				c0.6,0.1,1.1,0.3,1.7,0.6c0.6,0.3,1.1,0.6,1.6,1c0.5,0.4,1,0.9,1.3,1.5c0.4,0.6,0.7,1.2,0.9,2C153.6,24.8,153.8,25.6,153.8,26.5z
				"/>
			<path d="M183.3,31.8c0,0.3-0.1,0.7-0.2,0.9c-0.1,0.3-0.3,0.5-0.5,0.8c-0.2,0.2-0.5,0.4-0.8,0.5c-0.3,0.1-0.6,0.2-0.9,0.2l-17,0
				c-0.4,0-0.9-0.1-1.4-0.2c-0.5-0.1-1-0.3-1.5-0.5c-0.5-0.2-1-0.5-1.4-0.8c-0.4-0.3-0.8-0.8-1.2-1.2c-0.3-0.5-0.6-1.1-0.8-1.7
				c-0.2-0.6-0.3-1.4-0.3-2.2l0-12.7c0-0.4,0.1-0.9,0.2-1.4c0.1-0.5,0.3-1,0.5-1.5c0.2-0.5,0.5-1,0.9-1.4c0.4-0.4,0.8-0.8,1.3-1.2
				c0.5-0.3,1.1-0.6,1.7-0.8c0.6-0.2,1.4-0.3,2.2-0.3l19.1,0l0,4.7l-19.1,0c-0.6,0-1.1,0.2-1.4,0.5c-0.3,0.3-0.5,0.8-0.5,1.4l0,12.7
				c0,0.6,0.2,1.1,0.5,1.4c0.3,0.3,0.8,0.5,1.4,0.5l14.6,0l0-5.9l-12.5,0l0-4.7l14.9,0c0.3,0,0.7,0.1,0.9,0.2
				c0.3,0.1,0.5,0.3,0.8,0.5c0.2,0.2,0.4,0.5,0.5,0.8c0.1,0.3,0.2,0.6,0.2,0.9L183.3,31.8z"/>
		</g>
		<g>
			<path d="M230.4,22c0,0.9-0.1,1.6-0.3,2.3c-0.2,0.7-0.5,1.3-0.9,1.8c-0.4,0.5-0.8,1-1.3,1.3c-0.5,0.4-1,0.7-1.5,0.9
				c-0.5,0.2-1,0.4-1.6,0.5c-0.5,0.1-1,0.2-1.5,0.2l-8.6,0l0-3.8l8.6,0c0.5,0,0.9-0.1,1.3-0.3c0.4-0.2,0.7-0.4,1-0.7
				c0.3-0.3,0.5-0.6,0.7-1c0.2-0.4,0.2-0.8,0.2-1.3l0-1.7c0-0.5-0.2-0.9-0.3-1.3c-0.2-0.4-0.4-0.7-0.6-1c-0.3-0.3-0.6-0.5-1-0.7
				c-0.4-0.2-0.8-0.2-1.3-0.2l-8.6,0c-0.5,0-0.9,0.1-1.2,0.4c-0.3,0.3-0.4,0.6-0.4,1.1l0,15.6l-3.8,0l0-15.6c0-1,0.2-1.8,0.5-2.5
				c0.4-0.7,0.8-1.2,1.3-1.7c0.5-0.4,1.1-0.7,1.7-0.9c0.6-0.2,1.2-0.3,1.7-0.3l8.6,0c0.9,0,1.6,0.1,2.3,0.3c0.7,0.2,1.3,0.5,1.8,0.9
				c0.5,0.4,1,0.8,1.3,1.3s0.7,1,0.9,1.5c0.2,0.5,0.4,1,0.5,1.6c0.1,0.5,0.2,1,0.2,1.5L230.4,22z"/>
			<path d="M252.6,34.2l-13.7,0c-0.5,0-1.1-0.1-1.7-0.3c-0.6-0.2-1.2-0.5-1.7-0.9c-0.5-0.4-1-1-1.3-1.7c-0.4-0.7-0.5-1.5-0.5-2.5
				l0-13.7c0-0.3,0-0.5,0.1-0.7c0.1-0.2,0.2-0.4,0.4-0.6c0.2-0.2,0.4-0.3,0.6-0.4c0.2-0.1,0.5-0.1,0.8-0.1l17.1,0l0,3.8l-15.2,0
				l0,11.8c0,0.5,0.1,0.9,0.4,1.1c0.3,0.3,0.6,0.4,1.2,0.4l13.7,0L252.6,34.2z M250.9,25.6l-12,0l0-3.8l12,0L250.9,25.6z"/>
			<path d="M276.7,20.3c0,0.9-0.1,1.6-0.3,2.3c-0.2,0.7-0.5,1.3-0.9,1.8c-0.4,0.5-0.8,1-1.3,1.3c-0.5,0.4-1,0.7-1.5,0.9
				c-0.5,0.2-1,0.4-1.6,0.5c-0.5,0.1-1,0.2-1.5,0.2l7.9,6.9l-5.9,0l-7.9-6.9l-2.7,0l0-3.8l8.6,0c0.5,0,0.9-0.1,1.3-0.3
				c0.4-0.2,0.7-0.4,1-0.7c0.3-0.3,0.5-0.6,0.7-1c0.2-0.4,0.2-0.8,0.2-1.3l0-2.4c0-0.2,0-0.4-0.1-0.5c-0.1-0.1-0.1-0.2-0.2-0.2
				c-0.1-0.1-0.2-0.1-0.3-0.1c-0.1,0-0.2,0-0.3,0l-12.5,0l0,17.2l-3.8,0l0-19c0-0.3,0-0.5,0.1-0.7c0.1-0.2,0.2-0.4,0.4-0.6
				c0.2-0.2,0.4-0.3,0.6-0.4c0.2-0.1,0.5-0.1,0.8-0.1l14.4,0c0.8,0,1.6,0.2,2.1,0.5c0.6,0.3,1.1,0.7,1.4,1.2c0.4,0.5,0.6,1,0.8,1.5
				c0.2,0.5,0.2,1,0.2,1.5L276.7,20.3z"/>
			<path d="M300.8,32.3c0,0.3,0,0.5-0.1,0.8c-0.1,0.2-0.2,0.4-0.4,0.6c-0.2,0.2-0.4,0.3-0.6,0.4c-0.2,0.1-0.5,0.1-0.7,0.1l-8.6,0
				c-0.8,0-1.6-0.1-2.5-0.3c-0.8-0.2-1.6-0.4-2.4-0.8c-0.8-0.4-1.5-0.8-2.2-1.4c-0.7-0.6-1.3-1.2-1.8-2c-0.5-0.8-0.9-1.7-1.2-2.7
				c-0.3-1-0.4-2.1-0.4-3.3l0-10.5l3.8,0l0,10.5c0,1.1,0.1,2,0.4,2.7c0.3,0.7,0.7,1.4,1.1,1.9c0.5,0.5,1,0.9,1.5,1.2
				c0.5,0.3,1.1,0.5,1.6,0.6c0.5,0.1,0.9,0.2,1.3,0.3c0.4,0,0.6,0.1,0.7,0.1l6.7,0l0-17.2l3.8,0L300.8,32.3z M297.8,9.7l-7.6,2.7
				l-1-2.2l7-4.1L297.8,9.7z"/>
		</g>
		<path class="st0" d="M186.9,30.8l12.3,0c0.5,0,0.8-0.1,1-0.4c0.2-0.2,0.4-0.6,0.4-1l0-10.6l-13.7,0l0-3.4l15.4,0
			c0.2,0,0.5,0,0.7,0.1c0.2,0.1,0.4,0.2,0.5,0.4c0.2,0.2,0.3,0.3,0.4,0.6c0.1,0.2,0.1,0.4,0.1,0.7l0,12.3c0,0.9-0.2,1.6-0.5,2.2
			c-0.3,0.6-0.7,1.1-1.2,1.5c-0.5,0.4-1,0.7-1.6,0.8c-0.6,0.2-1.1,0.2-1.6,0.2l-12.3,0L186.9,30.8z M188.4,23l10.8,0l0,3.4l-10.8,0
			L188.4,23z"/>
	</g>
	<rect x="117.7" y="0.8" class="st0" width="1" height="38.7"/>
</g>
</svg>
