<?xml version="1.0" encoding="utf-8"?>
<!-- Generator: Adobe Illustrator 22.0.1, SVG Export Plug-In . SVG Version: 6.00 Build 0)  -->
<svg version="1.1" id="Capa_1" xmlns="http://www.w3.org/2000/svg" xmlns:xlink="http://www.w3.org/1999/xlink" x="0px" y="0px"
	 viewBox="0 0 599.4 614.7" style="enable-background:new 0 0 599.4 614.7;" xml:space="preserve">
<style type="text/css">
	.st0{fill:#D10000;}
</style>
<path class="st0" d="M299.6,614.7L98,484.6L0,109.1l5.4-0.6c104.5-11.9,178.1-39.9,221.4-61.4c47-23.2,69.5-43.9,69.7-44.1l3.2-3
	l3.2,3c0.2,0.2,22.7,20.9,69.7,44.1c43.3,21.5,116.9,49.5,221.4,61.4l5.4,0.6l-98.1,375.5L299.6,614.7z M106.2,478.7l193.5,124.8
	l193.5-124.7l94.4-361.4C484.3,105,411.3,76.9,368,55.4c-38.3-19-60.4-36.1-68.2-42.7c-7.8,6.5-29.9,23.6-68.2,42.6
	C188.3,76.8,115.3,104.8,12,117.2L106.2,478.7z"/>
<polygon class="st0" points="299.7,377.4 58.6,315.1 299.7,360.3 540.1,315.2 "/>
<g>
	<g>
		<path d="M182.1,460.8c0,1.8-0.2,3.5-0.7,4.9c-0.5,1.5-1.1,2.8-1.8,3.9c-0.8,1.1-1.7,2.1-2.7,2.9s-2.1,1.4-3.2,1.9
			c-1.1,0.5-2.2,0.9-3.3,1.1s-2.2,0.4-3.2,0.4h-35.8v-9.3h35.8c1.8,0,3.2-0.5,4.2-1.6c1-1,1.5-2.5,1.5-4.2c0-0.9-0.1-1.6-0.4-2.4
			c-0.3-0.7-0.6-1.3-1.1-1.9c-0.5-0.5-1.1-0.9-1.8-1.2c-0.7-0.3-1.5-0.4-2.3-0.4h-21.4c-1.5,0-3.1-0.3-4.9-0.8
			c-1.7-0.5-3.4-1.4-4.8-2.6c-1.5-1.2-2.7-2.8-3.7-4.7c-1-1.9-1.5-4.3-1.5-7.1c0-2.8,0.5-5.1,1.5-7.1c1-1.9,2.2-3.5,3.7-4.7
			s3.1-2.1,4.8-2.6s3.4-0.8,4.9-0.8h31.6v9.3h-31.6c-1.8,0-3.1,0.5-4.1,1.6s-1.5,2.5-1.5,4.2c0,1.8,0.5,3.2,1.5,4.2s2.4,1.6,4.1,1.6
			h21.4h0.1c1,0,2.1,0.2,3.2,0.4c1.1,0.3,2.2,0.6,3.3,1.2c1.1,0.5,2.2,1.2,3.2,2s1.9,1.8,2.7,2.9s1.4,2.4,1.8,3.9
			C181.9,457.3,182.1,458.9,182.1,460.8z"/>
		<path d="M240.4,471.2c0,0.7-0.1,1.3-0.4,1.9c-0.2,0.6-0.6,1.1-1,1.5s-0.9,0.7-1.5,1c-0.6,0.2-1.2,0.4-1.9,0.4h-33.5
			c-0.9,0-1.8-0.1-2.8-0.3c-1-0.2-2-0.5-2.9-0.9c-1-0.4-1.9-1-2.8-1.7c-0.9-0.7-1.7-1.5-2.3-2.5c-0.7-1-1.2-2.1-1.6-3.4
			c-0.4-1.3-0.6-2.7-0.6-4.3v-25.1c0-0.9,0.1-1.8,0.3-2.8s0.5-2,0.9-2.9c0.4-1,1-1.9,1.7-2.8s1.5-1.7,2.5-2.3c1-0.7,2.1-1.2,3.3-1.6
			c1.3-0.4,2.7-0.6,4.3-0.6h37.7v9.3h-37.7c-1.2,0-2.1,0.3-2.8,1c-0.6,0.6-1,1.6-1,2.9v25.1c0,1.2,0.3,2.1,1,2.8
			c0.7,0.7,1.6,1,2.8,1H231v-11.6h-24.7v-9.4h29.3c0.7,0,1.3,0.1,1.9,0.4c0.6,0.2,1.1,0.6,1.5,1s0.7,0.9,1,1.5
			c0.2,0.6,0.4,1.2,0.4,1.8L240.4,471.2z"/>
	</g>
	<g>
		<path d="M333.3,451.8c0,1.7-0.2,3.2-0.6,4.6c-0.4,1.3-1,2.5-1.7,3.6c-0.7,1-1.6,1.9-2.5,2.6s-1.9,1.3-3,1.8c-1,0.5-2.1,0.8-3.1,1
			s-2,0.3-3,0.3h-16.9v-7.5h16.9c1-0.1,1.8-0.3,2.6-0.6c0.8-0.3,1.4-0.7,2-1.3c0.6-0.5,1-1.2,1.3-1.9c0.3-0.8,0.5-1.6,0.5-2.6v-3.4
			c-0.1-0.9-0.3-1.8-0.6-2.6c-0.3-0.8-0.7-1.5-1.3-2c-0.5-0.6-1.2-1-1.9-1.3c-0.7-0.3-1.6-0.5-2.6-0.5h-16.9c-1,0-1.8,0.3-2.3,0.8
			s-0.8,1.3-0.8,2.2v30.8h-7.5V445c0-1.9,0.4-3.6,1.1-4.9s1.6-2.4,2.6-3.3c1-0.8,2.2-1.4,3.4-1.8c1.2-0.4,2.4-0.6,3.4-0.6h16.9
			c1.7,0,3.2,0.2,4.6,0.6c1.3,0.4,2.5,1,3.6,1.7c1,0.7,1.9,1.6,2.6,2.5s1.3,1.9,1.8,3c0.5,1,0.8,2.1,1,3.1s0.3,2,0.3,3L333.3,451.8z
			"/>
		<path d="M377,475.8h-27c-1,0-2.2-0.2-3.4-0.5c-1.2-0.4-2.4-1-3.4-1.8s-1.9-1.9-2.6-3.3c-0.7-1.3-1.1-3-1.1-4.9v-27
			c0-0.5,0.1-1,0.3-1.5c0.2-0.5,0.5-0.9,0.8-1.2c0.3-0.3,0.7-0.6,1.2-0.8c0.5-0.2,1-0.3,1.5-0.3H377v7.5h-30v23.3
			c0,1,0.3,1.7,0.8,2.2s1.3,0.8,2.3,0.8h27L377,475.8z M373.6,458.9h-23.7v-7.5h23.7V458.9z"/>
		<path d="M424.5,448.4c0,1.7-0.2,3.2-0.6,4.6c-0.4,1.3-1,2.5-1.7,3.6c-0.7,1-1.6,1.9-2.5,2.6s-1.9,1.3-3,1.8c-1,0.5-2.1,0.8-3.1,1
			s-2,0.3-3,0.3l15.6,13.5h-11.6L399,462.3h-5.4v-7.5h16.9c0.9-0.1,1.8-0.3,2.6-0.6c0.8-0.3,1.5-0.7,2-1.3c0.6-0.5,1-1.2,1.3-1.9
			c0.3-0.8,0.5-1.6,0.5-2.6v-4.7c0-0.4-0.1-0.7-0.2-1c-0.1-0.2-0.2-0.4-0.4-0.5c-0.2-0.1-0.3-0.2-0.5-0.2s-0.4,0-0.5,0h-24.7v33.8
			h-7.5v-37.5c0-0.5,0.1-1,0.3-1.5c0.2-0.5,0.5-0.9,0.8-1.2c0.3-0.3,0.7-0.6,1.2-0.8c0.5-0.2,1-0.3,1.5-0.3h28.4
			c1.7,0,3.1,0.3,4.2,0.9c1.2,0.6,2.1,1.4,2.8,2.3c0.7,0.9,1.2,1.9,1.6,3c0.3,1.1,0.5,2,0.5,3L424.5,448.4z"/>
		<path d="M472.1,472.1c0,0.5-0.1,1-0.3,1.5c-0.2,0.5-0.5,0.9-0.8,1.2c-0.3,0.3-0.7,0.6-1.2,0.8c-0.5,0.2-1,0.3-1.5,0.3h-16.9
			c-1.6,0-3.2-0.2-4.8-0.5c-1.6-0.3-3.2-0.9-4.7-1.6s-3-1.6-4.3-2.8c-1.3-1.1-2.5-2.4-3.5-4c-1-1.5-1.8-3.3-2.4-5.2
			c-0.6-2-0.9-4.2-0.9-6.6v-20.7h7.5v20.7c0,2.1,0.3,3.9,0.9,5.4s1.3,2.7,2.2,3.7c0.9,1,1.9,1.7,3,2.3c1.1,0.6,2.1,1,3.1,1.2
			c1,0.3,1.8,0.4,2.6,0.5c0.7,0.1,1.2,0.1,1.5,0.1h13.2v-33.8h7.5L472.1,472.1z M466.1,427.6l-15,5.4l-2-4.3l13.9-8.1L466.1,427.6z"
			/>
	</g>
	<path class="st0" d="M247.4,469.1h24.3c0.9,0,1.6-0.2,2-0.7c0.5-0.5,0.7-1.1,0.7-2v-21h-27v-6.7h30.3c0.5,0,0.9,0.1,1.3,0.3
		c0.4,0.2,0.8,0.4,1.1,0.7c0.3,0.3,0.5,0.7,0.7,1.1s0.3,0.9,0.3,1.3v24.3c0,1.7-0.3,3.2-0.9,4.4c-0.6,1.2-1.4,2.2-2.4,2.9
		c-0.9,0.8-2,1.3-3.1,1.6c-1.1,0.3-2.1,0.5-3.1,0.5h-24.3L247.4,469.1z M250.4,453.8h21.3v6.8h-21.3L250.4,453.8z"/>
</g>
<path class="st0" d="M583.9,144.9l-22.2,17.9l-22.3,17.8l0,0h-0.1l-28.4,18.6l-28.4,18.5l-0.3,0.2l-0.4,0.1l-37.6,10.2l-37.6,10.1
	h-0.1h-0.2c-11.8,1.9-23.6,3.7-35.4,5.5l-35.4,5.5l2.2-5.6l10.6,13.5l0.8,1v1.2l0.1,37.7v2l-1.8,1.1l-47.5,29.5l-2,1.2l-2-1.2
	l-47.5-29.5l-1.8-1.1V297l0.1-37.7V258l0.8-1l10.6-13.5l2.3,5.6l-35.4-5.5l-35.4-5.5h-0.2h-0.1l-37.6-10.2l-37.6-10.3l-0.4-0.1
	l-0.3-0.2L85,198.8l-28.4-18.6h-0.1l0,0l-22.3-17.8L12,144.5l23,16.8l23,16.9l-0.1-0.1l28.9,17.6l28.9,17.7l-0.6-0.3l37.8,9.4
	l37.8,9.5l-0.3-0.1l35.5,5l35.5,5.1l5.9,0.9l-3.7,4.8l-10.5,13.6l0.8-2.2l0.1,37.7l-1.7-3.1l47.6,29.3h-4l47.6-29.3l-1.7,3.1
	l0.1-37.7l0.8,2.2l-10.5-13.6l-3.7-4.8l5.9-0.8l35.5-5.1c11.8-1.7,23.6-3.4,35.5-5l-0.3,0.1l37.8-9.5l37.8-9.4l-0.6,0.3l28.9-17.7
	l29-17.6l-0.1,0.1l23-16.9L583.9,144.9z"/>
<path d="M567.7,141.2L338,162l-38,49.8l31.1-50.1l-20.7-37.5l23-9.8h-61.9l-5.4,5.2h-17.2l5.7,30.5l5.4-17.6h13.2l4.8,12.3l-12.9,17
	l31.1,50.1l-38-49.8L28.5,141.2l37.8,26.3l229.3,45L75.6,178l30.3,17.5l189.6,17.4l-176.3-7.2l60.4,14.5l115.9-7l-101.9,12.1l39,5.8
	l63-17.5l-52.8,19.3l15.1,1.1l37.9-19.9L263,235l14.7,0.1l18.6-20.3l-33.7,42.7l0.8,22.4l33.3-64.7l-33,74.6l31,19.9
	c0,0,3.3-94.6,3.3-94.9l0,0l0,0l3.3,94.9l31-19.9l-33-74.6l33.3,64.8l0.8-22.4l-33.6-42.7l18.6,20.3l14.7-0.1l-32.8-20.9l37.9,20
	l15.1-1.1l-52.8-19.3l63,17.5l39-5.8l-101.9-12.1l115.9,7l60.4-14.5l-176.3,7.2l189.6-17.3l30.3-17.5l-220,34.5l229.3-45
	L567.7,141.2z M275.4,122.6l-3.8-4.5H283L275.4,122.6z"/>
<path class="st0" d="M332.3,230.2H264l34.2-55L332.3,230.2z M272.2,225.6H324l-25.9-41.7L272.2,225.6z"/>
</svg>
